R6 class storing health statistics for a single GP practice. — gp • HealthDataScotland
…
x[["plot_data"]](type = "population_pyramid")
#> # A tibble: 24 × 4
#> # Groups:   Date [3]
#>        Date Age        Female  Male
#>       <dbl> <fct>       <dbl> <dbl>
#>  1 20231001 Ages0to4     -170   186
#>  2 20231001 Ages5to14    -407   463
#>  3 20231001 Ages15to24   -430   419
#>  4 20231001 Ages25to44   -975   952
#>  5 20231001 Ages45to64  -1259  1170
#>  6 20231001 Ages65to74   -539   494
#>  7 20231001 Ages75to84   -339   307
#>  8 20231001 Ages85plus    -97    94
#>  9 20240101 Ages0to4     -171   190
#> 10 20240101 Ages5to14    -401   456
#> # ℹ 14 more rows
…
## ------------------------------------------------
## Method `gp$plot`
## ------------------------------------------------

x <- example_gp_unit()
x[["plot"]](type = "population_pyramid")

## ------------------------------------------------
## Method `gp$plot_data`
## ------------------------------------------------

x <- example_gp_unit()
x[["plot_data"]](type = "population_pyramid")
#> # A tibble: 24 × 4
#> # Groups:   Date [3]
#>        Date Age        Female  Male
#>       <dbl> <fct>       <dbl> <dbl>
#>  1 20231001 Ages0to4     -170   186
#>  2 20231001 Ages5to14    -407   463
#>  3 20231001 Ages15to24   -430   419
#>  4 20231001 Ages25to44   -975   952
#>  5 20231001 Ages45to64  -1259  1170
#>  6 20231001 Ages65to74   -539   494
#>  7 20231001 Ages75to84   -339   307
#>  8 20231001 Ages85plus    -97    94
#>  9 20240101 Ages0to4     -171   190
#> 10 20240101 Ages5to14    -401   456
#> # ℹ 14 more rows
…
