R6 class storing health statistics for a list of gp health units. — gp_grp • HealthDataScotland
…
x[["plot_data"]](type = "national_pyramid")
#> # A tibble: 24 × 4
#> # Groups:   Date [3]
#>        Date Age        Female  Male
#>       <dbl> <fct>       <dbl> <dbl>
#>  1 20231001 Ages0to4     -283   314
#>  2 20231001 Ages5to14    -752   825
#>  3 20231001 Ages15to24   -860   928
#>  4 20231001 Ages25to44  -1710  1690
#>  5 20231001 Ages45to64  -2199  2146
#>  6 20231001 Ages65to74   -981   916
#>  7 20231001 Ages75to84   -675   605
#>  8 20231001 Ages85plus   -262   201
#>  9 20240101 Ages0to4     -284   316
#> 10 20240101 Ages5to14    -753   841
#> # ℹ 14 more rows
…
## ------------------------------------------------
## Method `gp_grp$plot`
## ------------------------------------------------

x <- example_gp_grp_unit()
x[["plot"]](type = "gp_bar")

## ------------------------------------------------
## Method `gp_grp$plot_data`
## ------------------------------------------------

x <- example_gp_grp_unit()
x[["plot_data"]](type = "gp_bar")
#> # A tibble: 24 × 4
#> # Groups:   Date [3]
#>        Date Age        `10002 - Muirhead Medical Centre` 10017 - The Blue Prac…¹
#>       <dbl> <fct>                                  <dbl>                   <dbl>
#>  1 20231001 Ages0to4                                 186                     128
#>  2 20231001 Ages5to14                                463                     362
#>  3 20231001 Ages15to24                               419                     509
#>  4 20231001 Ages25to44                               952                     738
#>  5 20231001 Ages45to64                              1170                     976
#>  6 20231001 Ages65to74                               494                     422
#>  7 20231001 Ages75to84                               307                     298
#>  8 20231001 Ages85plus                                94                     107
#>  9 20240101 Ages0to4                                 190                     126
#> 10 20240101 Ages5to14                                456                     385
#> # ℹ 14 more rows
#> # ℹ abbreviated name: ¹​`10017 - The Blue Practice`
…
