R6 class storing health statistics for a single hospital. — hospital • HealthDataScotland
…
#> [1] "Arran War Memorial Hospital"
x[["address"]]()
#> [1] "Lamlash, Isle of Arran, KA278LF"
x[["health_board"]]()
#> [1] "S08000015"
x[["metadata"]]()
#> # A tibble: 1 × 16
#>   datasetID          ID    HospitalName AddressLine1 AddressLine2 AddressLine2QF
#>   <chr>              <chr> <chr>        <chr>        <chr>        <chr>         
#> 1 c698f450-eeed-41a… A101H Arran War M… Lamlash      Isle of Arr… NA            
#> # ℹ 10 more variables: AddressLine3 <chr>, AddressLine3QF <chr>,
#> #   AddressLine4 <chr>, AddressLine4QF <chr>, Postcode <chr>, HBName <chr>,
#> #   HSCP <chr>, CouncilArea <chr>, IntermediateZone <chr>, DataZone <chr>
x[["data"]]()
#> # A tibble: 21 × 23
#>    datasetID          FinancialYear FinancialYearQF HB    HBQF  ID    LocationQF
#>    <chr>              <chr>         <chr>           <chr> <chr> <chr> <chr>     
#>  1 d719af13-5fb3-430… 2022/23       NA              S080… NA    A101H NA        
#>  2 d719af13-5fb3-430… 2022/23       NA              S080… NA    A101H NA        
#>  3 d719af13-5fb3-430… 2022/23       NA              S080… NA    A101H NA        
#>  4 d719af13-5fb3-430… 2022/23       NA              S080… NA    A101H NA        
#>  5 d719af13-5fb3-430… 2022/23       NA              S080… NA    A101H NA        
#>  6 d719af13-5fb3-430… 2022/23       NA              S080… NA    A101H NA        
#>  7 d719af13-5fb3-430… 2022/23       NA              S080… NA    A101H NA        
#>  8 d719af13-5fb3-430… 2022/23       NA              S080… NA    A101H NA        
#>  9 d719af13-5fb3-430… 2022/23       NA              S080… NA    A101H NA        
#> 10 d719af13-5fb3-430… 2022/23       NA              S080… NA    A101H NA        
#> # ℹ 11 more rows
#> # ℹ 16 more variables: Specialty <chr>, SpecialtyQF <chr>, SpecialtyName <chr>,
#> #   SpecialtyNameQF <chr>, SpecialtyGrouping <chr>, SpecialtyGroupingQF <chr>,
#> #   AverageAvailableStaffedBeds <dbl>, AverageAvailableStaffedBedsQF <chr>,
#> #   PercentageOccupancy <dbl>, PercentageOccupancyQF <chr>,
#> #   AllStaffedBeds <dbl>, AllStaffedBedsQF <chr>, AverageOccupiedBeds <dbl>,
#> #   AverageOccupiedBedsQF <chr>, TotalOccupiedBeds <dbl>, …
…
