Introduction to health units • HealthDataScotland
…
Plotting

Visualising data associated with a single GP practice can be achieved using the $plot function with an appropriate type argument. To see which plot types are available to use, the $plot_types function can be used.

gp_unit$plot_types()
#> [1] "population_pyramid" "population_trend"

gp_unit$plot(type = "population_pyramid")

Figure 1: This bar chart shows a population pyramid of the total number of GP registered patients (x-axis) across age category (y-axis) for each gender (colour).

Helper functions $plot_data and $plot_info can be used to create the data associated with each plot and character text describing each plot (alongside functionality related to the shiny application) respectively.

gp_unit$plot_data(type = "population_pyramid")
#> # A tibble: 24 × 4
#> # Groups:   Date [3]
#>        Date Age        Female  Male
#>       <dbl> <fct>       <dbl> <dbl>
#>  1 20231001 Ages0to4     -170   186
#>  2 20231001 Ages5to14    -407   463
#>  3 20231001 Ages15to24   -430   419
#>  4 20231001 Ages25to44   -975   952
#>  5 20231001 Ages45to64  -1259  1170
#>  6 20231001 Ages65to74   -539   494
#>  7 20231001 Ages75to84   -339   307
#>  8 20231001 Ages85plus    -97    94
#>  9 20240101 Ages0to4     -171   190
#> 10 20240101 Ages5to14    -401   456
#> # ℹ 14 more rows
…
gp_unit$summary_info(type = "population_summary")
#> [1] "This summary table presents the number of registered patients for the\n        selected GP practice per gender and time point."

Hospital

Data associated with a single hospital is stored in a hospital() health unit object. example_hospital_unit() can be used to render an example object.

hospital_unit <- example_hospital_unit()

Data

Hospital health unit objects house a data.frame storing bed capacity data and a data.frame storing metadata associated with the hospital. These can be obtained using the public functions $data and $metadata.

hospital_unit$data()
#> # A tibble: 21 × 23
#>    datasetID          FinancialYear FinancialYearQF HB    HBQF  ID    LocationQF
#>    <chr>              <chr>         <chr>           <chr> <chr> <chr> <chr>     
#>  1 d719af13-5fb3-430… 2022/23       <NA>            S080… <NA>  A101H <NA>      
#>  2 d719af13-5fb3-430… 2022/23       <NA>            S080… <NA>  A101H <NA>      
#>  3 d719af13-5fb3-430… 2022/23       <NA>            S080… <NA>  A101H <NA>      
#>  4 d719af13-5fb3-430… 2022/23       <NA>            S080… <NA>  A101H <NA>      
#>  5 d719af13-5fb3-430… 2022/23       <NA>            S080… <NA>  A101H <NA>      
#>  6 d719af13-5fb3-430… 2022/23       <NA>            S080… <NA>  A101H <NA>      
#>  7 d719af13-5fb3-430… 2022/23       <NA>            S080… <NA>  A101H <NA>      
#>  8 d719af13-5fb3-430… 2022/23       <NA>            S080… <NA>  A101H <NA>      
#>  9 d719af13-5fb3-430… 2022/23       <NA>            S080… <NA>  A101H <NA>      
#> 10 d719af13-5fb3-430… 2022/23       <NA>            S080… <NA>  A101H <NA>      
#> # ℹ 11 more rows
#> # ℹ 16 more variables: Specialty <chr>, SpecialtyQF <chr>, SpecialtyName <chr>,
#> #   SpecialtyNameQF <chr>, SpecialtyGrouping <chr>, SpecialtyGroupingQF <chr>,
#> #   AverageAvailableStaffedBeds <dbl>, AverageAvailableStaffedBedsQF <chr>,
#> #   PercentageOccupancy <dbl>, PercentageOccupancyQF <chr>,
#> #   AllStaffedBeds <dbl>, AllStaffedBedsQF <chr>, AverageOccupiedBeds <dbl>,
#> #   AverageOccupiedBedsQF <chr>, TotalOccupiedBeds <dbl>, …
…
Visualising data assciated with multiple GP practices can be achieved using the $plot function with an appropriate type argument. To see which plot types are available to use, the $plot_types function can be used.

gp_grp_unit$plot_types()
#> [1] "national_trend"     "national_pyramid"   "health_board_trend"
#> [4] "health_board_bar"   "gp_trend"           "gp_bar"

gp_grp_unit$plot(type = "gp_bar")

Figure 3: This bar chart shows the total number of GP registered patients (y-axis) for each individal GP practice (colour) across age categories (x-axis). Settings can be used to show data for different GP practices and genders.

Helper functions $plot_data and $plot_info can be used to create the data associated with each plot and character text describing each plot (alongside functionality related to the shiny application) respectively.

gp_grp_unit$plot_data(type = "gp_bar")
#> # A tibble: 24 × 4
#> # Groups:   Date [3]
#>        Date Age        `10002 - Muirhead Medical Centre` 10017 - The Blue Prac…¹
#>       <dbl> <fct>                                  <dbl>                   <dbl>
#>  1 20231001 Ages0to4                                 186                     128
#>  2 20231001 Ages5to14                                463                     362
#>  3 20231001 Ages15to24                               419                     509
#>  4 20231001 Ages25to44                               952                     738
#>  5 20231001 Ages45to64                              1170                     976
#>  6 20231001 Ages65to74                               494                     422
#>  7 20231001 Ages75to84                               307                     298
#>  8 20231001 Ages85plus                                94                     107
#>  9 20240101 Ages0to4                                 190                     126
#> 10 20240101 Ages5to14                                456                     385
#> # ℹ 14 more rows
#> # ℹ abbreviated name: ¹​`10017 - The Blue Practice`
…
